{
    "1": {
        "id": 1,
        "value": "Node 1",
        "parentId": null,
        "isDeleted": false
    },
    "2": {
        "id": 2,
        "value": "Node 2",
        "parentId": 1,
        "isDeleted": false
    },
    "3": {
        "id": 3,
        "value": "Node 3",
        "parentId": 1,
        "isDeleted": false
    },
    "4": {
        "id": 4,
        "value": "Node 4",
        "parentId": 1,
        "isDeleted": false
    },
    "5": {
        "id": 5,
        "value": "Node 5",
        "parentId": 4,
        "isDeleted": false
    },
    "6": {
        "id": 6,
        "value": "Node 6",
        "parentId": 4,
        "isDeleted": false
    },
    "7": {
        "id": 7,
        "value": "Node 7",
        "parentId": 4,
        "isDeleted": false
    },
    "8": {
        "id": 8,
        "value": "Node 8",
        "parentId": 4,
        "isDeleted": false
    },
    "9": {
        "id": 9,
        "value": "Node 9",
        "parentId": 8,
        "isDeleted": false
    },
    "10": {
        "id": 10,
        "value": "Node 10",
        "parentId": 8,
        "isDeleted": false
    },
    "11": {
        "id": 11,
        "value": "Node 11",
        "parentId": 8,
        "isDeleted": false
    },
    "12": {
        "id": 12,
        "value": "Node 12",
        "parentId": 8,
        "isDeleted": false
    },
    "13": {
        "id": 13,
        "value": "Node 13",
        "parentId": 12,
        "isDeleted": false
    },
    "14": {
        "id": 14,
        "value": "Node 14",
        "parentId": 12,
        "isDeleted": false
    },
    "15": {
        "id": 15,
        "value": "Node 15",
        "parentId": 12,
        "isDeleted": false
    },
    "16": {
        "id": 16,
        "value": "Node 16",
        "parentId": 12,
        "isDeleted": false
    },
    "17": {
        "id": 17,
        "value": "Node 17",
        "parentId": 3,
        "isDeleted": false
    },
    "18": {
        "id": 18,
        "value": "Node 18",
        "parentId": 3,
        "isDeleted": false
    },
    "19": {
        "id": 19,
        "value": "Node 19",
        "parentId": 18,
        "isDeleted": false
    },
    "20": {
        "id": 20,
        "value": "Node 20",
        "parentId": 18,
        "isDeleted": false
    },
    "21": {
        "id": 21,
        "value": "Node 21",
        "parentId": 20,
        "isDeleted": false
    },
    "22": {
        "id": 22,
        "value": "Node 22",
        "parentId": 20,
        "isDeleted": false
    },
    "23": {
        "id": 23,
        "value": "Node 23",
        "parentId": 22,
        "isDeleted": false
    },
    "24": {
        "id": 24,
        "value": "Node 24",
        "parentId": 22,
        "isDeleted": false
    },
    "25": {
        "id": 25,
        "value": "Node 25",
        "parentId": 16,
        "isDeleted": false
    },
    "26": {
        "id": 26,
        "value": "Node 26",
        "parentId": 16,
        "isDeleted": false
    },
    "27": {
        "id": 27,
        "value": "Node 27",
        "parentId": 26,
        "isDeleted": false
    },
    "28": {
        "id": 28,
        "value": "Node 28",
        "parentId": 26,
        "isDeleted": false
    },
    "29": {
        "id": 29,
        "value": "Node 29",
        "parentId": 24,
        "isDeleted": false
    },
    "30": {
        "id": 30,
        "value": "Node 30",
        "parentId": 24,
        "isDeleted": false
    }
}